{
  "project_info": {
    "project_number": "964377832867",
    "firebase_url": "https://project-2712480817961976581.firebaseio.com",
    "project_id": "project-2712480817961976581",
    "storage_bucket": "project-2712480817961976581.appspot.com"
  },
  "client": [
    {
      "client_info": {
        "mobilesdk_app_id": "1:964377832867:android:0f41293fa0ba8651",
        "android_client_info": {
          "package_name": "com.example.vinumani.OMDB_Volley_App"
        }
      },
      "oauth_client": [
        {
          "client_id": "964377832867-pqut4f6usobqhie6gkjf0mhtkfi0h3bs.apps.googleusercontent.com",
          "client_type": 3
        }
      ],
      "api_key": [
        {
          "current_key": "AIzaSyCt0Dglgs68W63N-yv00u7RKA7-uvCCw04"
        }
      ],
      "services": {
        "analytics_service": {
          "status": 1
        },
        "appinvite_service": {
          "status": 1,
          "other_platform_oauth_client": []
        },
        "ads_service": {
          "status": 2
        }
      }
    }
  ],
  "configuration_version": "1"
}